%YAML 1.1
%TAG !u! tag:unity3d.com,2011:
--- !u!74 &7400000
AnimationClip:
  m_ObjectHideFlags: 0
  m_CorrespondingSourceObject: {fileID: 0}
  m_PrefabInternal: {fileID: 0}
  m_Name: Dodge_5_animation
  serializedVersion: 6
  m_Legacy: 0
  m_Compressed: 0
  m_UseHighQualityCurve: 1
  m_RotationCurves: []
  m_CompressedRotationCurves: []
  m_EulerCurves: []
  m_PositionCurves: []
  m_ScaleCurves: []
  m_FloatCurves: []
  m_PPtrCurves:
  - curve:
    - time: 0
      value: {fileID: 21300000, guid: 8028f10754c94e441b743f377029073a, type: 3}
    - time: 0.023809526
      value: {fileID: 21300002, guid: 8028f10754c94e441b743f377029073a, type: 3}
    - time: 0.047619052
      value: {fileID: 21300004, guid: 8028f10754c94e441b743f377029073a, type: 3}
    - time: 0.07142858
      value: {fileID: 21300006, guid: 8028f10754c94e441b743f377029073a, type: 3}
    - time: 0.095238104
      value: {fileID: 21300008, guid: 8028f10754c94e441b743f377029073a, type: 3}
    - time: 0.11904763
      value: {fileID: 21300010, guid: 8028f10754c94e441b743f377029073a, type: 3}
    - time: 0.14285716
      value: {fileID: 21300012, guid: 8028f10754c94e441b743f377029073a, type: 3}
    - time: 0.16666669
      value: {fileID: 21300014, guid: 8028f10754c94e441b743f377029073a, type: 3}
    - time: 0.19047621
      value: {fileID: 21300016, guid: 8028f10754c94e441b743f377029073a, type: 3}
    - time: 0.21428573
      value: {fileID: 21300018, guid: 8028f10754c94e441b743f377029073a, type: 3}
    - time: 0.23809525
      value: {fileID: 21300020, guid: 8028f10754c94e441b743f377029073a, type: 3}
    - time: 0.26190478
      value: {fileID: 21300022, guid: 8028f10754c94e441b743f377029073a, type: 3}
    - time: 0.28571433
      value: {fileID: 21300024, guid: 8028f10754c94e441b743f377029073a, type: 3}
    - time: 0.30952385
      value: {fileID: 21300026, guid: 8028f10754c94e441b743f377029073a, type: 3}
    - time: 0.33333337
      value: {fileID: 21300028, guid: 8028f10754c94e441b743f377029073a, type: 3}
    - time: 0.3571429
      value: {fileID: 21300030, guid: 8028f10754c94e441b743f377029073a, type: 3}
    - time: 0.38095242
      value: {fileID: 21300032, guid: 8028f10754c94e441b743f377029073a, type: 3}
    - time: 0.40476194
      value: {fileID: 21300034, guid: 8028f10754c94e441b743f377029073a, type: 3}
    - time: 0.42857146
      value: {fileID: 21300036, guid: 8028f10754c94e441b743f377029073a, type: 3}
    - time: 0.45238099
      value: {fileID: 21300038, guid: 8028f10754c94e441b743f377029073a, type: 3}
    - time: 0.4761905
      value: {fileID: 21300040, guid: 8028f10754c94e441b743f377029073a, type: 3}
    - time: 0.50000006
      value: {fileID: 21300042, guid: 8028f10754c94e441b743f377029073a, type: 3}
    - time: 0.52380955
      value: {fileID: 21300044, guid: 8028f10754c94e441b743f377029073a, type: 3}
    - time: 0.5476191
      value: {fileID: 21300046, guid: 8028f10754c94e441b743f377029073a, type: 3}
    - time: 0.57142866
      value: {fileID: 21300048, guid: 8028f10754c94e441b743f377029073a, type: 3}
    - time: 0.59523815
      value: {fileID: 21300050, guid: 8028f10754c94e441b743f377029073a, type: 3}
    - time: 0.6190477
      value: {fileID: 21300052, guid: 8028f10754c94e441b743f377029073a, type: 3}
    - time: 0.6428572
      value: {fileID: 21300054, guid: 8028f10754c94e441b743f377029073a, type: 3}
    - time: 0.66666675
      value: {fileID: 21300056, guid: 8028f10754c94e441b743f377029073a, type: 3}
    - time: 0.69047624
      value: {fileID: 21300058, guid: 8028f10754c94e441b743f377029073a, type: 3}
    - time: 0.7142858
      value: {fileID: 21300060, guid: 8028f10754c94e441b743f377029073a, type: 3}
    - time: 0.7380953
      value: {fileID: 21300062, guid: 8028f10754c94e441b743f377029073a, type: 3}
    - time: 0.76190484
      value: {fileID: 21300064, guid: 8028f10754c94e441b743f377029073a, type: 3}
    - time: 0.7857144
      value: {fileID: 21300066, guid: 8028f10754c94e441b743f377029073a, type: 3}
    - time: 0.8095239
      value: {fileID: 21300068, guid: 8028f10754c94e441b743f377029073a, type: 3}
    - time: 0.83333343
      value: {fileID: 21300070, guid: 8028f10754c94e441b743f377029073a, type: 3}
    - time: 0.8571429
      value: {fileID: 21300072, guid: 8028f10754c94e441b743f377029073a, type: 3}
    - time: 0.8809525
      value: {fileID: 21300074, guid: 8028f10754c94e441b743f377029073a, type: 3}
    - time: 0.90476197
      value: {fileID: 21300076, guid: 8028f10754c94e441b743f377029073a, type: 3}
    - time: 0.9285715
      value: {fileID: 21300078, guid: 8028f10754c94e441b743f377029073a, type: 3}
    - time: 0.952381
      value: {fileID: 21300080, guid: 8028f10754c94e441b743f377029073a, type: 3}
    - time: 0.97619057
      value: {fileID: 21300082, guid: 8028f10754c94e441b743f377029073a, type: 3}
    - time: 1.0000001
      value: {fileID: 21300084, guid: 8028f10754c94e441b743f377029073a, type: 3}
    - time: 1.0238097
      value: {fileID: 21300086, guid: 8028f10754c94e441b743f377029073a, type: 3}
    - time: 1.0476191
      value: {fileID: 21300088, guid: 8028f10754c94e441b743f377029073a, type: 3}
    - time: 1.0714287
      value: {fileID: 21300090, guid: 8028f10754c94e441b743f377029073a, type: 3}
    - time: 1.0952382
      value: {fileID: 21300092, guid: 8028f10754c94e441b743f377029073a, type: 3}
    - time: 1.1190478
      value: {fileID: 21300094, guid: 8028f10754c94e441b743f377029073a, type: 3}
    - time: 1.1428573
      value: {fileID: 21300096, guid: 8028f10754c94e441b743f377029073a, type: 3}
    attribute: m_Sprite
    path: 
    classID: 212
    script: {fileID: 0}
  m_SampleRate: 41
  m_WrapMode: 0
  m_Bounds:
    m_Center: {x: 0, y: 0, z: 0}
    m_Extent: {x: 0, y: 0, z: 0}
  m_ClipBindingConstant:
    genericBindings:
    - serializedVersion: 2
      path: 0
      attribute: 0
      script: {fileID: 0}
      typeID: 212
      customType: 23
      isPPtrCurve: 1
    pptrCurveMapping:
    - {fileID: 21300000, guid: 8028f10754c94e441b743f377029073a, type: 3}
    - {fileID: 21300002, guid: 8028f10754c94e441b743f377029073a, type: 3}
    - {fileID: 21300004, guid: 8028f10754c94e441b743f377029073a, type: 3}
    - {fileID: 21300006, guid: 8028f10754c94e441b743f377029073a, type: 3}
    - {fileID: 21300008, guid: 8028f10754c94e441b743f377029073a, type: 3}
    - {fileID: 21300010, guid: 8028f10754c94e441b743f377029073a, type: 3}
    - {fileID: 21300012, guid: 8028f10754c94e441b743f377029073a, type: 3}
    - {fileID: 21300014, guid: 8028f10754c94e441b743f377029073a, type: 3}
    - {fileID: 21300016, guid: 8028f10754c94e441b743f377029073a, type: 3}
    - {fileID: 21300018, guid: 8028f10754c94e441b743f377029073a, type: 3}
    - {fileID: 21300020, guid: 8028f10754c94e441b743f377029073a, type: 3}
    - {fileID: 21300022, guid: 8028f10754c94e441b743f377029073a, type: 3}
    - {fileID: 21300024, guid: 8028f10754c94e441b743f377029073a, type: 3}
    - {fileID: 21300026, guid: 8028f10754c94e441b743f377029073a, type: 3}
    - {fileID: 21300028, guid: 8028f10754c94e441b743f377029073a, type: 3}
    - {fileID: 21300030, guid: 8028f10754c94e441b743f377029073a, type: 3}
    - {fileID: 21300032, guid: 8028f10754c94e441b743f377029073a, type: 3}
    - {fileID: 21300034, guid: 8028f10754c94e441b743f377029073a, type: 3}
    - {fileID: 21300036, guid: 8028f10754c94e441b743f377029073a, type: 3}
    - {fileID: 21300038, guid: 8028f10754c94e441b743f377029073a, type: 3}
    - {fileID: 21300040, guid: 8028f10754c94e441b743f377029073a, type: 3}
    - {fileID: 21300042, guid: 8028f10754c94e441b743f377029073a, type: 3}
    - {fileID: 21300044, guid: 8028f10754c94e441b743f377029073a, type: 3}
    - {fileID: 21300046, guid: 8028f10754c94e441b743f377029073a, type: 3}
    - {fileID: 21300048, guid: 8028f10754c94e441b743f377029073a, type: 3}
    - {fileID: 21300050, guid: 8028f10754c94e441b743f377029073a, type: 3}
    - {fileID: 21300052, guid: 8028f10754c94e441b743f377029073a, type: 3}
    - {fileID: 21300054, guid: 8028f10754c94e441b743f377029073a, type: 3}
    - {fileID: 21300056, guid: 8028f10754c94e441b743f377029073a, type: 3}
    - {fileID: 21300058, guid: 8028f10754c94e441b743f377029073a, type: 3}
    - {fileID: 21300060, guid: 8028f10754c94e441b743f377029073a, type: 3}
    - {fileID: 21300062, guid: 8028f10754c94e441b743f377029073a, type: 3}
    - {fileID: 21300064, guid: 8028f10754c94e441b743f377029073a, type: 3}
    - {fileID: 21300066, guid: 8028f10754c94e441b743f377029073a, type: 3}
    - {fileID: 21300068, guid: 8028f10754c94e441b743f377029073a, type: 3}
    - {fileID: 21300070, guid: 8028f10754c94e441b743f377029073a, type: 3}
    - {fileID: 21300072, guid: 8028f10754c94e441b743f377029073a, type: 3}
    - {fileID: 21300074, guid: 8028f10754c94e441b743f377029073a, type: 3}
    - {fileID: 21300076, guid: 8028f10754c94e441b743f377029073a, type: 3}
    - {fileID: 21300078, guid: 8028f10754c94e441b743f377029073a, type: 3}
    - {fileID: 21300080, guid: 8028f10754c94e441b743f377029073a, type: 3}
    - {fileID: 21300082, guid: 8028f10754c94e441b743f377029073a, type: 3}
    - {fileID: 21300084, guid: 8028f10754c94e441b743f377029073a, type: 3}
    - {fileID: 21300086, guid: 8028f10754c94e441b743f377029073a, type: 3}
    - {fileID: 21300088, guid: 8028f10754c94e441b743f377029073a, type: 3}
    - {fileID: 21300090, guid: 8028f10754c94e441b743f377029073a, type: 3}
    - {fileID: 21300092, guid: 8028f10754c94e441b743f377029073a, type: 3}
    - {fileID: 21300094, guid: 8028f10754c94e441b743f377029073a, type: 3}
    - {fileID: 21300096, guid: 8028f10754c94e441b743f377029073a, type: 3}
  m_AnimationClipSettings:
    serializedVersion: 2
    m_AdditiveReferencePoseClip: {fileID: 0}
    m_AdditiveReferencePoseTime: 0
    m_StartTime: 0
    m_StopTime: 1.1672475
    m_OrientationOffsetY: 0
    m_Level: 0
    m_CycleOffset: 0
    m_HasAdditiveReferencePose: 0
    m_LoopTime: 0
    m_LoopBlend: 0
    m_LoopBlendOrientation: 0
    m_LoopBlendPositionY: 0
    m_LoopBlendPositionXZ: 0
    m_KeepOriginalOrientation: 0
    m_KeepOriginalPositionY: 1
    m_KeepOriginalPositionXZ: 0
    m_HeightFromFeet: 0
    m_Mirror: 0
  m_EditorCurves: []
  m_EulerEditorCurves: []
  m_HasGenericRootTransform: 0
  m_HasMotionFloatCurves: 0
  m_GenerateMotionCurves: 0
  m_Events: []
